^C:\BEILLESZTES\PIROS\GOLDSMITH COURSES 2ND Y\CREATIVE PROJECT 2ND Y\WORKSHOP_3D_ENVIRONMENT_2\WORKSHOP_3D_ENVIRONMENT_2\SRC\MAIN.CPP|C:\BEILLESZTES\PIROS\GOLDSMITH COURSES 2ND Y\CREATIVE PROJECT 2ND Y\WORKSHOP_3D_ENVIRONMENT_2\WORKSHOP_3D_ENVIRONMENT_2\SRC\OFAPP.CPP
C:\BEILLESZTES\PIROS\GOLDSMITH COURSES 2ND Y\CREATIVE PROJECT 2ND Y\WORKSHOP_3D_ENVIRONMENT_2\WORKSHOP_3D_ENVIRONMENT_2\OBJ\WIN32\DEBUG\OFAPP.OBJ
C:\BEILLESZTES\PIROS\GOLDSMITH COURSES 2ND Y\CREATIVE PROJECT 2ND Y\WORKSHOP_3D_ENVIRONMENT_2\WORKSHOP_3D_ENVIRONMENT_2\OBJ\WIN32\DEBUG\MAIN.OBJ
^C:\BEILLESZTES\PIROS\GOLDSMITH COURSES 2ND Y\CREATIVE PROJECT 2ND Y\WORKSHOP_3D_ENVIRONMENT_2\WORKSHOP_3D_ENVIRONMENT_2\SRC\MAIN.CPP
C:\BEILLESZTES\PIROS\GOLDSMITH COURSES 2ND Y\CREATIVE PROJECT 2ND Y\WORKSHOP_3D_ENVIRONMENT_2\WORKSHOP_3D_ENVIRONMENT_2\OBJ\WIN32\DEBUG\VC141.PDB
^C:\BEILLESZTES\PIROS\GOLDSMITH COURSES 2ND Y\CREATIVE PROJECT 2ND Y\WORKSHOP_3D_ENVIRONMENT_X\WORKSHOP_3D_ENVIRONMENT_2\SRC\MAIN.CPP|C:\BEILLESZTES\PIROS\GOLDSMITH COURSES 2ND Y\CREATIVE PROJECT 2ND Y\WORKSHOP_3D_ENVIRONMENT_X\WORKSHOP_3D_ENVIRONMENT_2\SRC\OFAPP.CPP
C:\BEILLESZTES\PIROS\GOLDSMITH COURSES 2ND Y\CREATIVE PROJECT 2ND Y\WORKSHOP_3D_ENVIRONMENT_X\WORKSHOP_3D_ENVIRONMENT_2\OBJ\WIN32\DEBUG\MAIN.OBJ
^C:\BEILLESZTES\PIROS\GOLDSMITH COURSES 2ND Y\CREATIVE PROJECT 2ND Y\WORKSHOP_3D_ENVIRONMENT_X\WORKSHOP_3D_ENVIRONMENT_2\SRC\MAIN.CPP
C:\BEILLESZTES\PIROS\GOLDSMITH COURSES 2ND Y\CREATIVE PROJECT 2ND Y\WORKSHOP_3D_ENVIRONMENT_X\WORKSHOP_3D_ENVIRONMENT_2\OBJ\WIN32\DEBUG\MAIN.OBJ
^C:\BEILLESZTES\PIROS\GOLDSMITH COURSES 2ND Y\CREATIVE PROJECT 2ND Y\WORKSHOP_3D_ENVIRONMENT_X\WORKSHOP_3D_ENVIRONMENT_2\SRC\OFAPP.CPP
C:\BEILLESZTES\PIROS\GOLDSMITH COURSES 2ND Y\CREATIVE PROJECT 2ND Y\WORKSHOP_3D_ENVIRONMENT_X\WORKSHOP_3D_ENVIRONMENT_2\OBJ\WIN32\DEBUG\VC141.PDB
C:\BEILLESZTES\PIROS\GOLDSMITH COURSES 2ND Y\CREATIVE PROJECT 2ND Y\WORKSHOP_3D_ENVIRONMENT_X\WORKSHOP_3D_ENVIRONMENT_2\OBJ\WIN32\DEBUG\OFAPP.OBJ
